Name,WeightClassKg,Division,Sex,Best3SquatKg,Best3BenchKg,Best3DeadliftKg,TotalKg,Event,Equipment,Place
Edith Scherpf,60,Open,F,75,50,95,220,SBD,Single-ply,1
H. Weidner,60,Open,F,70,42.5,77.5,190,SBD,Single-ply,2
S. Koukal,60,Open,F,45,30,80,155,SBD,Single-ply,3
Rebecca Waibler,82.5,Open,F,150,100,190,440,SBD,Single-ply,1
Andrea Weidner,82.5,Open,F,100,52.5,125,277.5,SBD,Single-ply,2
R. Hunsinger,82.5,Open,F,95,60,115,270,SBD,Single-ply,3
C. Poringer,82.5,Open,F,72.5,35,112.5,220,SBD,Single-ply,4
D. Kolbenschlag,82.5,Open,F,67.5,40,95,202.5,SBD,Single-ply,5
