Name,Sex,Equipment,Event,BodyweightKg,WeightClassKg,Division,Squat1Kg,Squat2Kg,Squat3Kg,Best3SquatKg,Bench1Kg,Bench2Kg,Bench3Kg,Best3BenchKg,Deadlift1Kg,Deadlift2Kg,Deadlift3Kg,Best3DeadliftKg,TotalKg,Place,AgeClass
Lindi Marson-Taylor,F,Single-ply,SBD,52,52,F-E-Open,45,50,52.5,52.5,32.5,35,37.5,37.5,67.5,72.5,77.5,77.5,167.5,1,49.5-58.5
Janet Scott,F,Single-ply,SBD,55.7,57,F-E-Open,62.5,70,-75,70,50,52.5,-55,52.5,105,115,125,125,247.5,1,49.5-58.5
Helen Barrs,F,Single-ply,SBD,62.9,63,F-E-Open,75,,,75,55,,,55,75,,,75,205,1,39.5-48.5
Wendie Kirkland,F,Single-ply,SBD,66.7,72,F-E-Open,95,102.5,107.5,107.5,55,62.5,65,65,105,115,120,120,292.5,1,39.5-48.5
Sue Giles,F,Single-ply,SBD,71.2,72,F-E-Open,65,75,85,85,47.5,52.5,-55,52.5,115,130,-132.5,130,267.5,2,49.5-58.5
Chantelle Svarc,F,Single-ply,SBD,92.3,84+,F-E-Open,90,100,105,105,60,65,67.5,67.5,100,110,120,120,292.5,1,23.5-38.5
Ted Byrne,M,Single-ply,SBD,65.4,66,M-E-Open,115,127.5,-130,127.5,85,-90,-90,85,175,190.5,192.5,192.5,405,1,59.5-68.5
Ben Murell,M,Single-ply,SBD,65.8,66,M-E-Open,100,105,110,110,60,65,70,70,165,183.5,190,190,370,2,0-17.5
Roger Little,M,Single-ply,SBD,65.8,66,M-E-Open,70,75,80,80,60,-65.5,-65.5,60,125,130,-132.5,130,270,3,69.5-999
Jake Riddel,M,Single-ply,SBD,62.8,66,M-E-Open,60,70,75,75,40,50,52.5,52.5,100,115,130,130,257.5,4,0-15.5
Travis Short,M,Single-ply,SBD,65,66,M-E-Open,55,62.5,70,70,40,50,52.5,52.5,100,115,-130,115,237.5,5,0-15.5
Etienne Huard,M,Single-ply,SBD,53.9,59,M-E-Open,40,50,60,60,30,35,37.5,37.5,100,110,120,120,217.5,6,23.5-38.5
Wayne Smith,M,Single-ply,SBD,72.7,74,M-E-Open,140,147.5,155,155,120,125,130,130,170,190,,190,475,1,23.5-38.5
Luke Dixon,M,Single-ply,SBD,73.9,74,M-E-Open,135,145,-155,145,95,102.5,105,105,175,185,195,195,445,2,23.5-38.5
Bill Taylor,M,Single-ply,SBD,69.7,74,M-E-Open,115,117.5,-122.5,117.5,80,-85,-85,80,135,142.5,150,150,347.5,3,49.5-58.5
Nathan Dickenson,M,Single-ply,SBD,67.5,74,M-E-Open,100,110,-125,110,50,65,72.5,72.5,130,145,160,160,342.5,4,0-17.5
Roger Powell,M,Single-ply,SBD,67.7,74,M-E-Open,110,120,,120,55,65,70,70,130,140,150,150,340,5,69.5-999
Will Ellinger,M,Single-ply,SBD,73.4,74,M-E-Open,160,162.5,165,165,-130,-130,-130,,160,172.5,177.5,177.5,,DQ,0-22.5
Owen Lilley,M,Single-ply,SBD,82.3,83,M-E-Open,170,180,-185,180,107.5,115,-120,115,220,-232.5,-232.5,220,515,1,0-22.5
Rowan Hartland,M,Single-ply,SBD,82.1,83,M-E-Open,155,162.5,170,170,100,107.5,110,110,210,232.5,-240,232.5,512.5,2,23.5-38.5
Matt Dickenson,M,Single-ply,SBD,78.1,83,M-E-Open,140,150,-157.5,150,90,95,100,100,190,205,210,210,460,3,0-22.5
Mick Cliff,M,Single-ply,SBD,80.3,83,M-E-Open,120,-140,140,140,100,110,-125,110,160,200,,200,450,4,49.5-58.5
Kevin Barrs,M,Single-ply,SBD,83,83,M-E-Open,120,130,-135,130,125,130,-135,130,150,165,180,180,440,5,49.5-58.5
Andrew Houldershaw,M,Single-ply,SBD,74.9,83,M-E-Open,115,120,125,125,70,80,-85,80,170,180,-182.5,180,385,6,0-19.5
Glynn Thomas,M,Single-ply,SBD,76.4,83,M-E-Open,90,100,105,105,70,80,85,85,140,155,165,165,355,7,23.5-38.5
Jordan Major,M,Single-ply,SBD,79.1,83,M-E-Open,80,85,92.5,92.5,60,70,72.5,72.5,120,140,152.5,152.5,317.5,8,0-15.5
Ian Shaw,M,Single-ply,SBD,88.3,93,M-E-Open,207,217.5,-222.5,217.5,120,122.5,125,125,272.5,282.5,-290,282.5,625,1,23.5-38.5
Les Attewell,M,Single-ply,SBD,90,93,M-E-Open,180,190,-200,190,120,125,130,130,230,240,-245,240,560,2,39.5-48.5
Steve Cook,M,Single-ply,SBD,92.2,93,M-E-Open,180,190,-197.5,190,110,120,-122.5,120,200,220,-235,220,530,3,23.5-38.5
Pete Aaron,M,Single-ply,SBD,84.3,93,M-E-Open,155,165,-172.5,165,85,95,102.5,102.5,195,205,-212.5,205,472.5,4,23.5-38.5
Richard Scott,M,Single-ply,SBD,91.7,93,M-E-Open,140,150,155,155,90,95,100,100,162.5,170,180,180,435,5,49.5-58.5
Glyn Belsher,M,Single-ply,SBD,92.4,93,M-E-Open,120,130,142.5,142.5,85,92.5,97.5,97.5,135,145,150,150,390,6,49.5-58.5
Sam Gould,M,Single-ply,SBD,89.4,93,M-E-Open,90,100,110,110,90,100,-105,100,160,172.5,-180,172.5,382.5,7,0-19.5
Dave Harding,M,Single-ply,SBD,104.2,105,M-E-Open,-220,220,-230,220,170,180,-190,180,260,280,-290,280,680,1,23.5-38.5
Darren Wood,M,Single-ply,SBD,101.7,105,M-E-Open,210,230,250,250,140,150,162.5,162.5,240,260,-280,260,672.5,2,39.5-48.5
Ash Brown,M,Single-ply,SBD,105,105,M-E-Open,200,222.5,-230,222.5,125,132.5,-140,132.5,220,240,250,250,605,3,23.5-38.5
Gary Croft,M,Single-ply,SBD,105,105,M-E-Open,-180,-180,180,180,160,-170,170,170,220,245,250,250,600,4,23.5-38.5
Alan Murphy,M,Single-ply,SBD,103.5,105,M-E-Open,170,180,200,200,105,110,115,115,150,165,180,180,495,5,49.5-58.5
Paul Hammond,M,Single-ply,SBD,100.3,105,M-E-Open,160,170,-175,170,120,125,130,130,180,185,-197.5,185,485,6,39.5-48.5
Alan Todd,M,Single-ply,SBD,93.2,105,M-E-Open,130,140,150,150,85,90,95,95,160,175,-185,175,420,7,23.5-38.5
Ross Shahin-Ajerlo,M,Single-ply,SBD,122,120+,M-E-Open,200,-220,220,220,180,190,-200,190,250,270,290,290,700,1,23.5-38.5
Jay Pateman,M,Single-ply,B,148,120+,M-E-Open,,,,,210,230.5,-235,230.5,,,,,230.5,1,23.5-38.5
